01_codigo_aula1
…
mutate()
Cria uma nova variável

Vamos ver cada uma delas!

5.1. select() — Escolhendo colunas

Às vezes, a base de dados tem muitas variáveis e você só precisa de algumas. O select() serve para isso.

# Selecionando apenas país, ano e expectativa de vida

dados |> 
  select(country, year, lifeExp)

# A tibble: 1,704 × 3
   country      year lifeExp
   <fct>       <int>   <dbl>
 1 Afghanistan  1952    28.8
 2 Afghanistan  1957    30.3
 3 Afghanistan  1962    32.0
 4 Afghanistan  1967    34.0
 5 Afghanistan  1972    36.1
 6 Afghanistan  1977    38.4
 7 Afghanistan  1982    39.9
 8 Afghanistan  1987    40.8
 9 Afghanistan  1992    41.7
10 Afghanistan  1997    41.8
# ℹ 1,694 more rows
…
Se você quiser pegar todos os países, com exceção daqueles que são do continente Ocenia, basta usar o operador != que significa “diferente”.

dados |> 
  filter(continent != "Oceania")

# A tibble: 1,680 × 6
   country     continent  year lifeExp      pop gdpPercap
   <fct>       <fct>     <int>   <dbl>    <int>     <dbl>
 1 Afghanistan Asia       1952    28.8  8425333      779.
 2 Afghanistan Asia       1957    30.3  9240934      821.
 3 Afghanistan Asia       1962    32.0 10267083      853.
 4 Afghanistan Asia       1967    34.0 11537966      836.
 5 Afghanistan Asia       1972    36.1 13079460      740.
 6 Afghanistan Asia       1977    38.4 14880372      786.
 7 Afghanistan Asia       1982    39.9 12881816      978.
 8 Afghanistan Asia       1987    40.8 13867957      852.
 9 Afghanistan Asia       1992    41.7 16317921      649.
10 Afghanistan Asia       1997    41.8 22227415      635.
# ℹ 1,670 more rows
…
# A tibble: 2 × 6
  country continent  year lifeExp       pop gdpPercap
  <fct>   <fct>     <int>   <dbl>     <int>     <dbl>
1 Brazil  Americas   2002    71.0 179914212     8131.
2 Brazil  Americas   2007    72.4 190010647     9066.

Ao usar o E (&) para filtrar, mantemos apenas os registros que satisfazem a intersecção das duas condições. Ou seja, se o país é Brasil e o ano é superior a 2000.

# Países da América OU Asia
dados |> 
  filter(continent == "Americas" | 
         continent == "Asia") # Operador OU

# A tibble: 696 × 6
   country     continent  year lifeExp      pop gdpPercap
   <fct>       <fct>     <int>   <dbl>    <int>     <dbl>
 1 Afghanistan Asia       1952    28.8  8425333      779.
 2 Afghanistan Asia       1957    30.3  9240934      821.
 3 Afghanistan Asia       1962    32.0 10267083      853.
 4 Afghanistan Asia       1967    34.0 11537966      836.
 5 Afghanistan Asia       1972    36.1 13079460      740.
 6 Afghanistan Asia       1977    38.4 14880372      786.
 7 Afghanistan Asia       1982    39.9 12881816      978.
 8 Afghanistan Asia       1987    40.8 13867957      852.
 9 Afghanistan Asia       1992    41.7 16317921      649.
10 Afghanistan Asia       1997    41.8 22227415      635.
# ℹ 686 more rows
…
exp_vida_2007 = 
  dados |> 
  select(country, year, lifeExp) |> 
  filter(year == 2007)

5.4. arrange() — Ordenando os dados

O arrange() ordena as linhas de acordo com uma coluna. Por padrão, ele ordena do menor para o maior.

# Ordenando por expectativa de vida (do menor para o maior)
dados |> 
  filter(year == 2007) |> 
  arrange(lifeExp)

# A tibble: 142 × 6
   country                  continent  year lifeExp      pop gdpPercap
   <fct>                    <fct>     <int>   <dbl>    <int>     <dbl>
 1 Swaziland                Africa     2007    39.6  1133066     4513.
 2 Mozambique               Africa     2007    42.1 19951656      824.
 3 Zambia                   Africa     2007    42.4 11746035     1271.
 4 Sierra Leone             Africa     2007    42.6  6144562      863.
 5 Lesotho                  Africa     2007    42.6  2012649     1569.
 6 Angola                   Africa     2007    42.7 12420476     4797.
 7 Zimbabwe                 Africa     2007    43.5 12311143      470.
 8 Afghanistan              Asia       2007    43.8 31889923      975.
 9 Central African Republic Africa     2007    44.7  4369038      706.
10 Liberia                  Africa     2007    45.7  3193942      415.
# ℹ 132 more rows

Para ordenar do maior para o menor, use desc():

# Os países com maior expectativa de vida em 2007
dados |> 
  filter(year == 2007) |> 
  arrange(desc(lifeExp))

# A tibble: 142 × 6
   country          continent  year lifeExp       pop gdpPercap
   <fct>            <fct>     <int>   <dbl>     <int>     <dbl>
 1 Japan            Asia       2007    82.6 127467972    31656.
 2 Hong Kong, China Asia       2007    82.2   6980412    39725.
 3 Iceland          Europe     2007    81.8    301931    36181.
 4 Switzerland      Europe     2007    81.7   7554661    37506.
 5 Australia        Oceania    2007    81.2  20434176    34435.
 6 Spain            Europe     2007    80.9  40448191    28821.
 7 Sweden           Europe     2007    80.9   9031088    33860.
 8 Israel           Asia       2007    80.7   6426679    25523.
 9 France           Europe     2007    80.7  61083916    30470.
10 Canada           Americas   2007    80.7  33390141    36319.
# ℹ 132 more rows
…
Vamos criar uma nova variável para designar os países que em 2007 possuíam mais de 75 milhões de habitantes.

dados |> 
  filter(year == 2007) |> 
  mutate(pop_75 = if_else(pop > 75000000, 
                          "Superior a 75 milhões",
                          "Igual ou inferior a 75 milhões")) |>
 select(country, pop, pop_75)

# A tibble: 142 × 3
   country           pop pop_75                        
   <fct>           <int> <chr>                         
 1 Afghanistan  31889923 Igual ou inferior a 75 milhões
 2 Albania       3600523 Igual ou inferior a 75 milhões
 3 Algeria      33333216 Igual ou inferior a 75 milhões
 4 Angola       12420476 Igual ou inferior a 75 milhões
 5 Argentina    40301927 Igual ou inferior a 75 milhões
 6 Australia    20434176 Igual ou inferior a 75 milhões
 7 Austria       8199783 Igual ou inferior a 75 milhões
 8 Bahrain        708573 Igual ou inferior a 75 milhões
 9 Bangladesh  150448339 Superior a 75 milhões         
10 Belgium      10392226 Igual ou inferior a 75 milhões
# ℹ 132 more rows
…
status_pop

# A tibble: 142 × 3
   country           pop status_pop
   <fct>           <int> <chr>     
 1 Afghanistan  25268405 Alta      
 2 Albania       3508512 Baixa     
 3 Algeria      31287142 Muito Alta
 4 Angola       10866106 Alta      
 5 Argentina    38331121 Muito Alta
 6 Australia    19546792 Alta      
 7 Austria       8148312 Média     
 8 Bahrain        656397 Baixa     
 9 Bangladesh  135656790 Muito Alta
10 Belgium      10311970 Média     
# ℹ 132 more rows
…
