02_codigo_aula2
…
O que precisamos fazer? Unir as duas bases usando esta variável como chave de ligação. Veja como fica! O que estou fazendo?

juntando por meio do left_join() as bases nascimentos_ano e municipios usando as variáveis equivalentes como chave de ligação: CODMUNRES e cod_municipio.

nascimentos_ano |> 
  left_join(municipios, 
            by = c("CODMUNRES"="cod_municipio"))

# A tibble: 168 × 8
# Groups:   ANO [24]
     ANO CODMUNRES total uf_sigla uf    uf_pad municipio           municipio_pad
   <dbl>     <dbl> <int> <chr>    <chr> <chr>  <chr>               <chr>        
 1  2000    520025  2301 GO       Goiás GOIAS  Águas Lindas de Go… AGUAS LINDAS…
 2  2000    520549   770 GO       Goiás GOIAS  Cidade Ocidental    CIDADE OCIDE…
 3  2000    520620   720 GO       Goiás GOIAS  Cristalina          CRISTALINA   
 4  2000    521250  3562 GO       Goiás GOIAS  Luziânia            LUZIANIA     
 5  2000    521523  1906 GO       Goiás GOIAS  Novo Gama           NOVO GAMA    
 6  2000    521975  1232 GO       Goiás GOIAS  Santo Antônio do D… SANTO ANTONI…
 7  2000    522185  2218 GO       Goiás GOIAS  Valparaíso de Goiás VALPARAISO D…
 8  2001    520025  2263 GO       Goiás GOIAS  Águas Lindas de Go… AGUAS LINDAS…
 9  2001    520549   637 GO       Goiás GOIAS  Cidade Ocidental    CIDADE OCIDE…
10  2001    520620   730 GO       Goiás GOIAS  Cristalina          CRISTALINA   
# ℹ 158 more rows
…
As variáveis usadas para juntar devem ser iguais, inclusive em tipo. Veja que ambas são numéricas (dbl).

Só para concluir, vamos manter apenas algumas variáveis importantes:

nascimentos_tratado =
  nascimentos_ano |> 
    left_join(municipios, 
              by = c("CODMUNRES"="cod_municipio")) |> 
    select(ANO, CODMUNRES, uf_sigla, municipio,
           total) |> 
    clean_names()

nascimentos_tratado

# A tibble: 168 × 5
# Groups:   ano [24]
     ano codmunres uf_sigla municipio                   total
   <dbl>     <dbl> <chr>    <chr>                       <int>
 1  2000    520025 GO       Águas Lindas de Goiás        2301
 2  2000    520549 GO       Cidade Ocidental              770
 3  2000    520620 GO       Cristalina                    720
 4  2000    521250 GO       Luziânia                     3562
 5  2000    521523 GO       Novo Gama                    1906
 6  2000    521975 GO       Santo Antônio do Descoberto  1232
 7  2000    522185 GO       Valparaíso de Goiás          2218
 8  2001    520025 GO       Águas Lindas de Goiás        2263
 9  2001    520549 GO       Cidade Ocidental              637
10  2001    520620 GO       Cristalina                    730
# ℹ 158 more rows
…
